%YAML 1.1
%TAG !u! tag:unity3d.com,2011:
--- !u!1 &2809177669410277182
GameObject:
  m_ObjectHideFlags: 0
  m_CorrespondingSourceObject: {fileID: 0}
  m_PrefabInstance: {fileID: 0}
  m_PrefabAsset: {fileID: 0}
  serializedVersion: 6
  m_Component:
  - component: {fileID: 3901680943607259098}
  m_Layer: 0
  m_Name: Checkpoint
  m_TagString: Untagged
  m_Icon: {fileID: 0}
  m_NavMeshLayer: 0
  m_StaticEditorFlags: 0
  m_IsActive: 1
--- !u!4 &3901680943607259098
Transform:
  m_ObjectHideFlags: 0
  m_CorrespondingSourceObject: {fileID: 0}
  m_PrefabInstance: {fileID: 0}
  m_PrefabAsset: {fileID: 0}
  m_GameObject: {fileID: 2809177669410277182}
  m_LocalRotation: {x: 0, y: 0, z: 0, w: 1}
  m_LocalPosition: {x: 59.63843, y: 4.6840487, z: -83.855515}
  m_LocalScale: {x: 1, y: 1, z: 1}
  m_Children:
  - {fileID: 1892825283398955796}
  m_Father: {fileID: 0}
  m_RootOrder: 0
  m_LocalEulerAnglesHint: {x: 0, y: 0, z: 0}
--- !u!1001 &2147675978520990975
PrefabInstance:
  m_ObjectHideFlags: 0
  serializedVersion: 2
  m_Modification:
    m_TransformParent: {fileID: 3901680943607259098}
    m_Modifications:
    - target: {fileID: -8679921383154817045, guid: 990105548478c464fa4ba76e899cb42f, type: 3}
      propertyPath: m_RootOrder
      value: 0
      objectReference: {fileID: 0}
    - target: {fileID: -8679921383154817045, guid: 990105548478c464fa4ba76e899cb42f, type: 3}
      propertyPath: m_LocalScale.x
      value: 1.5
      objectReference: {fileID: 0}
    - target: {fileID: -8679921383154817045, guid: 990105548478c464fa4ba76e899cb42f, type: 3}
      propertyPath: m_LocalScale.y
      value: 1.5
      objectReference: {fileID: 0}
    - target: {fileID: -8679921383154817045, guid: 990105548478c464fa4ba76e899cb42f, type: 3}
      propertyPath: m_LocalScale.z
      value: 1.5
      objectReference: {fileID: 0}
    - target: {fileID: -8679921383154817045, guid: 990105548478c464fa4ba76e899cb42f, type: 3}
      propertyPath: m_LocalPosition.x
      value: -2.2984314
      objectReference: {fileID: 0}
    - target: {fileID: -8679921383154817045, guid: 990105548478c464fa4ba76e899cb42f, type: 3}
      propertyPath: m_LocalPosition.y
      value: -3.8540487
      objectReference: {fileID: 0}
    - target: {fileID: -8679921383154817045, guid: 990105548478c464fa4ba76e899cb42f, type: 3}
      propertyPath: m_LocalPosition.z
      value: -3.9244843
      objectReference: {fileID: 0}
    - target: {fileID: -8679921383154817045, guid: 990105548478c464fa4ba76e899cb42f, type: 3}
      propertyPath: m_LocalRotation.w
      value: 1
      objectReference: {fileID: 0}
    - target: {fileID: -8679921383154817045, guid: 990105548478c464fa4ba76e899cb42f, type: 3}
      propertyPath: m_LocalRotation.x
      value: -0
      objectReference: {fileID: 0}
    - target: {fileID: -8679921383154817045, guid: 990105548478c464fa4ba76e899cb42f, type: 3}
      propertyPath: m_LocalRotation.y
      value: -0
      objectReference: {fileID: 0}
    - target: {fileID: -8679921383154817045, guid: 990105548478c464fa4ba76e899cb42f, type: 3}
      propertyPath: m_LocalRotation.z
      value: -0
      objectReference: {fileID: 0}
    - target: {fileID: -8679921383154817045, guid: 990105548478c464fa4ba76e899cb42f, type: 3}
      propertyPath: m_LocalEulerAnglesHint.x
      value: 0
      objectReference: {fileID: 0}
    - target: {fileID: -8679921383154817045, guid: 990105548478c464fa4ba76e899cb42f, type: 3}
      propertyPath: m_LocalEulerAnglesHint.y
      value: 0
      objectReference: {fileID: 0}
    - target: {fileID: -8679921383154817045, guid: 990105548478c464fa4ba76e899cb42f, type: 3}
      propertyPath: m_LocalEulerAnglesHint.z
      value: 0
      objectReference: {fileID: 0}
    - target: {fileID: 919132149155446097, guid: 990105548478c464fa4ba76e899cb42f, type: 3}
      propertyPath: m_Name
      value: flag
      objectReference: {fileID: 0}
    m_RemovedComponents: []
  m_SourcePrefab: {fileID: 100100000, guid: 990105548478c464fa4ba76e899cb42f, type: 3}
--- !u!4 &1892825283398955796 stripped
Transform:
  m_CorrespondingSourceObject: {fileID: -8679921383154817045, guid: 990105548478c464fa4ba76e899cb42f, type: 3}
  m_PrefabInstance: {fileID: 2147675978520990975}
  m_PrefabAsset: {fileID: 0}
