%YAML 1.1
%TAG !u! tag:unity3d.com,2011:
--- !u!1001 &55624011580801549
PrefabInstance:
  m_ObjectHideFlags: 0
  serializedVersion: 2
  m_Modification:
    m_TransformParent: {fileID: 1143545396395451993}
    m_Modifications:
    - target: {fileID: 6678578372260682385, guid: 50baba76a3156e74585c8ac73e34856d, type: 3}
      propertyPath: m_Name
      value: NFCTag (3)
      objectReference: {fileID: 0}
    - target: {fileID: 7977494274191765126, guid: 50baba76a3156e74585c8ac73e34856d, type: 3}
      propertyPath: m_RootOrder
      value: 4
      objectReference: {fileID: 0}
    - target: {fileID: 7977494274191765126, guid: 50baba76a3156e74585c8ac73e34856d, type: 3}
      propertyPath: m_LocalPosition.x
      value: -0.4
      objectReference: {fileID: 0}
    - target: {fileID: 7977494274191765126, guid: 50baba76a3156e74585c8ac73e34856d, type: 3}
      propertyPath: m_LocalPosition.y
      value: 0
      objectReference: {fileID: 0}
    - target: {fileID: 7977494274191765126, guid: 50baba76a3156e74585c8ac73e34856d, type: 3}
      propertyPath: m_LocalPosition.z
      value: 0.05
      objectReference: {fileID: 0}
    - target: {fileID: 7977494274191765126, guid: 50baba76a3156e74585c8ac73e34856d, type: 3}
      propertyPath: m_LocalRotation.w
      value: 1
      objectReference: {fileID: 0}
    - target: {fileID: 7977494274191765126, guid: 50baba76a3156e74585c8ac73e34856d, type: 3}
      propertyPath: m_LocalRotation.x
      value: 0
      objectReference: {fileID: 0}
    - target: {fileID: 7977494274191765126, guid: 50baba76a3156e74585c8ac73e34856d, type: 3}
      propertyPath: m_LocalRotation.y
      value: 0
      objectReference: {fileID: 0}
    - target: {fileID: 7977494274191765126, guid: 50baba76a3156e74585c8ac73e34856d, type: 3}
      propertyPath: m_LocalRotation.z
      value: 0
      objectReference: {fileID: 0}
    - target: {fileID: 7977494274191765126, guid: 50baba76a3156e74585c8ac73e34856d, type: 3}
      propertyPath: m_LocalEulerAnglesHint.x
      value: 0
      objectReference: {fileID: 0}
    - target: {fileID: 7977494274191765126, guid: 50baba76a3156e74585c8ac73e34856d, type: 3}
      propertyPath: m_LocalEulerAnglesHint.y
      value: 0
      objectReference: {fileID: 0}
    - target: {fileID: 7977494274191765126, guid: 50baba76a3156e74585c8ac73e34856d, type: 3}
      propertyPath: m_LocalEulerAnglesHint.z
      value: 0
      objectReference: {fileID: 0}
    m_RemovedComponents: []
  m_SourcePrefab: {fileID: 100100000, guid: 50baba76a3156e74585c8ac73e34856d, type: 3}
--- !u!1001 &1436415976630299795
PrefabInstance:
  m_ObjectHideFlags: 0
  serializedVersion: 2
  m_Modification:
    m_TransformParent: {fileID: 1143545396395451993}
    m_Modifications:
    - target: {fileID: 6678578372260682385, guid: 50baba76a3156e74585c8ac73e34856d, type: 3}
      propertyPath: m_Name
      value: NFCTag (4)
      objectReference: {fileID: 0}
    - target: {fileID: 7977494274191765126, guid: 50baba76a3156e74585c8ac73e34856d, type: 3}
      propertyPath: m_RootOrder
      value: 5
      objectReference: {fileID: 0}
    - target: {fileID: 7977494274191765126, guid: 50baba76a3156e74585c8ac73e34856d, type: 3}
      propertyPath: m_LocalPosition.x
      value: -0.8
      objectReference: {fileID: 0}
    - target: {fileID: 7977494274191765126, guid: 50baba76a3156e74585c8ac73e34856d, type: 3}
      propertyPath: m_LocalPosition.y
      value: 0
      objectReference: {fileID: 0}
    - target: {fileID: 7977494274191765126, guid: 50baba76a3156e74585c8ac73e34856d, type: 3}
      propertyPath: m_LocalPosition.z
      value: 0.05
      objectReference: {fileID: 0}
    - target: {fileID: 7977494274191765126, guid: 50baba76a3156e74585c8ac73e34856d, type: 3}
      propertyPath: m_LocalRotation.w
      value: 1
      objectReference: {fileID: 0}
    - target: {fileID: 7977494274191765126, guid: 50baba76a3156e74585c8ac73e34856d, type: 3}
      propertyPath: m_LocalRotation.x
      value: 0
      objectReference: {fileID: 0}
    - target: {fileID: 7977494274191765126, guid: 50baba76a3156e74585c8ac73e34856d, type: 3}
      propertyPath: m_LocalRotation.y
      value: 0
      objectReference: {fileID: 0}
    - target: {fileID: 7977494274191765126, guid: 50baba76a3156e74585c8ac73e34856d, type: 3}
      propertyPath: m_LocalRotation.z
      value: 0
      objectReference: {fileID: 0}
    - target: {fileID: 7977494274191765126, guid: 50baba76a3156e74585c8ac73e34856d, type: 3}
      propertyPath: m_LocalEulerAnglesHint.x
      value: 0
      objectReference: {fileID: 0}
    - target: {fileID: 7977494274191765126, guid: 50baba76a3156e74585c8ac73e34856d, type: 3}
      propertyPath: m_LocalEulerAnglesHint.y
      value: 0
      objectReference: {fileID: 0}
    - target: {fileID: 7977494274191765126, guid: 50baba76a3156e74585c8ac73e34856d, type: 3}
      propertyPath: m_LocalEulerAnglesHint.z
      value: 0
      objectReference: {fileID: 0}
    m_RemovedComponents: []
  m_SourcePrefab: {fileID: 100100000, guid: 50baba76a3156e74585c8ac73e34856d, type: 3}
--- !u!1001 &3067797871057010374
PrefabInstance:
  m_ObjectHideFlags: 0
  serializedVersion: 2
  m_Modification:
    m_TransformParent: {fileID: 1143545396395451993}
    m_Modifications:
    - target: {fileID: 6678578372260682385, guid: 50baba76a3156e74585c8ac73e34856d, type: 3}
      propertyPath: m_Name
      value: NFCTag (1)
      objectReference: {fileID: 0}
    - target: {fileID: 7977494274191765126, guid: 50baba76a3156e74585c8ac73e34856d, type: 3}
      propertyPath: m_RootOrder
      value: 2
      objectReference: {fileID: 0}
    - target: {fileID: 7977494274191765126, guid: 50baba76a3156e74585c8ac73e34856d, type: 3}
      propertyPath: m_LocalPosition.x
      value: 0.4
      objectReference: {fileID: 0}
    - target: {fileID: 7977494274191765126, guid: 50baba76a3156e74585c8ac73e34856d, type: 3}
      propertyPath: m_LocalPosition.y
      value: 0
      objectReference: {fileID: 0}
    - target: {fileID: 7977494274191765126, guid: 50baba76a3156e74585c8ac73e34856d, type: 3}
      propertyPath: m_LocalPosition.z
      value: 0.05
      objectReference: {fileID: 0}
    - target: {fileID: 7977494274191765126, guid: 50baba76a3156e74585c8ac73e34856d, type: 3}
      propertyPath: m_LocalRotation.w
      value: 1
      objectReference: {fileID: 0}
    - target: {fileID: 7977494274191765126, guid: 50baba76a3156e74585c8ac73e34856d, type: 3}
      propertyPath: m_LocalRotation.x
      value: 0
      objectReference: {fileID: 0}
    - target: {fileID: 7977494274191765126, guid: 50baba76a3156e74585c8ac73e34856d, type: 3}
      propertyPath: m_LocalRotation.y
      value: 0
      objectReference: {fileID: 0}
    - target: {fileID: 7977494274191765126, guid: 50baba76a3156e74585c8ac73e34856d, type: 3}
      propertyPath: m_LocalRotation.z
      value: 0
      objectReference: {fileID: 0}
    - target: {fileID: 7977494274191765126, guid: 50baba76a3156e74585c8ac73e34856d, type: 3}
      propertyPath: m_LocalEulerAnglesHint.x
      value: 0
      objectReference: {fileID: 0}
    - target: {fileID: 7977494274191765126, guid: 50baba76a3156e74585c8ac73e34856d, type: 3}
      propertyPath: m_LocalEulerAnglesHint.y
      value: 0
      objectReference: {fileID: 0}
    - target: {fileID: 7977494274191765126, guid: 50baba76a3156e74585c8ac73e34856d, type: 3}
      propertyPath: m_LocalEulerAnglesHint.z
      value: 0
      objectReference: {fileID: 0}
    m_RemovedComponents: []
  m_SourcePrefab: {fileID: 100100000, guid: 50baba76a3156e74585c8ac73e34856d, type: 3}
--- !u!1001 &3331600742518499641
PrefabInstance:
  m_ObjectHideFlags: 0
  serializedVersion: 2
  m_Modification:
    m_TransformParent: {fileID: 0}
    m_Modifications:
    - target: {fileID: 2272080031879940696, guid: 2f18c4d7072f70742bbb8168f9ff7488, type: 3}
      propertyPath: m_RootOrder
      value: 0
      objectReference: {fileID: 0}
    - target: {fileID: 2272080031879940696, guid: 2f18c4d7072f70742bbb8168f9ff7488, type: 3}
      propertyPath: m_LocalPosition.x
      value: 0
      objectReference: {fileID: 0}
    - target: {fileID: 2272080031879940696, guid: 2f18c4d7072f70742bbb8168f9ff7488, type: 3}
      propertyPath: m_LocalPosition.y
      value: 0
      objectReference: {fileID: 0}
    - target: {fileID: 2272080031879940696, guid: 2f18c4d7072f70742bbb8168f9ff7488, type: 3}
      propertyPath: m_LocalPosition.z
      value: 0
      objectReference: {fileID: 0}
    - target: {fileID: 2272080031879940696, guid: 2f18c4d7072f70742bbb8168f9ff7488, type: 3}
      propertyPath: m_LocalRotation.w
      value: 1
      objectReference: {fileID: 0}
    - target: {fileID: 2272080031879940696, guid: 2f18c4d7072f70742bbb8168f9ff7488, type: 3}
      propertyPath: m_LocalRotation.x
      value: 0
      objectReference: {fileID: 0}
    - target: {fileID: 2272080031879940696, guid: 2f18c4d7072f70742bbb8168f9ff7488, type: 3}
      propertyPath: m_LocalRotation.y
      value: 0
      objectReference: {fileID: 0}
    - target: {fileID: 2272080031879940696, guid: 2f18c4d7072f70742bbb8168f9ff7488, type: 3}
      propertyPath: m_LocalRotation.z
      value: 0
      objectReference: {fileID: 0}
    - target: {fileID: 2272080031879940696, guid: 2f18c4d7072f70742bbb8168f9ff7488, type: 3}
      propertyPath: m_LocalEulerAnglesHint.x
      value: 0
      objectReference: {fileID: 0}
    - target: {fileID: 2272080031879940696, guid: 2f18c4d7072f70742bbb8168f9ff7488, type: 3}
      propertyPath: m_LocalEulerAnglesHint.y
      value: 0
      objectReference: {fileID: 0}
    - target: {fileID: 2272080031879940696, guid: 2f18c4d7072f70742bbb8168f9ff7488, type: 3}
      propertyPath: m_LocalEulerAnglesHint.z
      value: 0
      objectReference: {fileID: 0}
    - target: {fileID: 2441664872997523296, guid: 2f18c4d7072f70742bbb8168f9ff7488, type: 3}
      propertyPath: m_LocalPosition.y
      value: 1.5
      objectReference: {fileID: 0}
    - target: {fileID: 2848402205237629279, guid: 2f18c4d7072f70742bbb8168f9ff7488, type: 3}
      propertyPath: m_Name
      value: NFCBoard_Flat
      objectReference: {fileID: 0}
    - target: {fileID: 4219386956684625242, guid: 2f18c4d7072f70742bbb8168f9ff7488, type: 3}
      propertyPath: m_LocalScale.x
      value: 2
      objectReference: {fileID: 0}
    - target: {fileID: 4219386956684625242, guid: 2f18c4d7072f70742bbb8168f9ff7488, type: 3}
      propertyPath: m_LocalScale.y
      value: 1
      objectReference: {fileID: 0}
    - target: {fileID: 6329375085744472371, guid: 2f18c4d7072f70742bbb8168f9ff7488, type: 3}
      propertyPath: m_LocalScale.y
      value: 2
      objectReference: {fileID: 0}
    - target: {fileID: 6329375085744472371, guid: 2f18c4d7072f70742bbb8168f9ff7488, type: 3}
      propertyPath: m_LocalPosition.y
      value: 1
      objectReference: {fileID: 0}
    m_RemovedComponents: []
  m_SourcePrefab: {fileID: 100100000, guid: 2f18c4d7072f70742bbb8168f9ff7488, type: 3}
--- !u!4 &1143545396395451993 stripped
Transform:
  m_CorrespondingSourceObject: {fileID: 2441664872997523296, guid: 2f18c4d7072f70742bbb8168f9ff7488, type: 3}
  m_PrefabInstance: {fileID: 3331600742518499641}
  m_PrefabAsset: {fileID: 0}
--- !u!1001 &5216569335161917151
PrefabInstance:
  m_ObjectHideFlags: 0
  serializedVersion: 2
  m_Modification:
    m_TransformParent: {fileID: 1143545396395451993}
    m_Modifications:
    - target: {fileID: 6678578372260682385, guid: 50baba76a3156e74585c8ac73e34856d, type: 3}
      propertyPath: m_Name
      value: NFCTag (2)
      objectReference: {fileID: 0}
    - target: {fileID: 7977494274191765126, guid: 50baba76a3156e74585c8ac73e34856d, type: 3}
      propertyPath: m_RootOrder
      value: 3
      objectReference: {fileID: 0}
    - target: {fileID: 7977494274191765126, guid: 50baba76a3156e74585c8ac73e34856d, type: 3}
      propertyPath: m_LocalPosition.x
      value: 0
      objectReference: {fileID: 0}
    - target: {fileID: 7977494274191765126, guid: 50baba76a3156e74585c8ac73e34856d, type: 3}
      propertyPath: m_LocalPosition.y
      value: 0
      objectReference: {fileID: 0}
    - target: {fileID: 7977494274191765126, guid: 50baba76a3156e74585c8ac73e34856d, type: 3}
      propertyPath: m_LocalPosition.z
      value: 0.05
      objectReference: {fileID: 0}
    - target: {fileID: 7977494274191765126, guid: 50baba76a3156e74585c8ac73e34856d, type: 3}
      propertyPath: m_LocalRotation.w
      value: 1
      objectReference: {fileID: 0}
    - target: {fileID: 7977494274191765126, guid: 50baba76a3156e74585c8ac73e34856d, type: 3}
      propertyPath: m_LocalRotation.x
      value: 0
      objectReference: {fileID: 0}
    - target: {fileID: 7977494274191765126, guid: 50baba76a3156e74585c8ac73e34856d, type: 3}
      propertyPath: m_LocalRotation.y
      value: 0
      objectReference: {fileID: 0}
    - target: {fileID: 7977494274191765126, guid: 50baba76a3156e74585c8ac73e34856d, type: 3}
      propertyPath: m_LocalRotation.z
      value: 0
      objectReference: {fileID: 0}
    - target: {fileID: 7977494274191765126, guid: 50baba76a3156e74585c8ac73e34856d, type: 3}
      propertyPath: m_LocalEulerAnglesHint.x
      value: 0
      objectReference: {fileID: 0}
    - target: {fileID: 7977494274191765126, guid: 50baba76a3156e74585c8ac73e34856d, type: 3}
      propertyPath: m_LocalEulerAnglesHint.y
      value: 0
      objectReference: {fileID: 0}
    - target: {fileID: 7977494274191765126, guid: 50baba76a3156e74585c8ac73e34856d, type: 3}
      propertyPath: m_LocalEulerAnglesHint.z
      value: 0
      objectReference: {fileID: 0}
    m_RemovedComponents: []
  m_SourcePrefab: {fileID: 100100000, guid: 50baba76a3156e74585c8ac73e34856d, type: 3}
--- !u!1001 &5895556827219584985
PrefabInstance:
  m_ObjectHideFlags: 0
  serializedVersion: 2
  m_Modification:
    m_TransformParent: {fileID: 1143545396395451993}
    m_Modifications:
    - target: {fileID: 6678578372260682385, guid: 50baba76a3156e74585c8ac73e34856d, type: 3}
      propertyPath: m_Name
      value: NFCTag
      objectReference: {fileID: 0}
    - target: {fileID: 7977494274191765126, guid: 50baba76a3156e74585c8ac73e34856d, type: 3}
      propertyPath: m_RootOrder
      value: 1
      objectReference: {fileID: 0}
    - target: {fileID: 7977494274191765126, guid: 50baba76a3156e74585c8ac73e34856d, type: 3}
      propertyPath: m_LocalPosition.x
      value: 0.8
      objectReference: {fileID: 0}
    - target: {fileID: 7977494274191765126, guid: 50baba76a3156e74585c8ac73e34856d, type: 3}
      propertyPath: m_LocalPosition.y
      value: 0
      objectReference: {fileID: 0}
    - target: {fileID: 7977494274191765126, guid: 50baba76a3156e74585c8ac73e34856d, type: 3}
      propertyPath: m_LocalPosition.z
      value: 0.05
      objectReference: {fileID: 0}
    - target: {fileID: 7977494274191765126, guid: 50baba76a3156e74585c8ac73e34856d, type: 3}
      propertyPath: m_LocalRotation.w
      value: 1
      objectReference: {fileID: 0}
    - target: {fileID: 7977494274191765126, guid: 50baba76a3156e74585c8ac73e34856d, type: 3}
      propertyPath: m_LocalRotation.x
      value: 0
      objectReference: {fileID: 0}
    - target: {fileID: 7977494274191765126, guid: 50baba76a3156e74585c8ac73e34856d, type: 3}
      propertyPath: m_LocalRotation.y
      value: 0
      objectReference: {fileID: 0}
    - target: {fileID: 7977494274191765126, guid: 50baba76a3156e74585c8ac73e34856d, type: 3}
      propertyPath: m_LocalRotation.z
      value: 0
      objectReference: {fileID: 0}
    - target: {fileID: 7977494274191765126, guid: 50baba76a3156e74585c8ac73e34856d, type: 3}
      propertyPath: m_LocalEulerAnglesHint.x
      value: 0
      objectReference: {fileID: 0}
    - target: {fileID: 7977494274191765126, guid: 50baba76a3156e74585c8ac73e34856d, type: 3}
      propertyPath: m_LocalEulerAnglesHint.y
      value: 0
      objectReference: {fileID: 0}
    - target: {fileID: 7977494274191765126, guid: 50baba76a3156e74585c8ac73e34856d, type: 3}
      propertyPath: m_LocalEulerAnglesHint.z
      value: 0
      objectReference: {fileID: 0}
    m_RemovedComponents: []
  m_SourcePrefab: {fileID: 100100000, guid: 50baba76a3156e74585c8ac73e34856d, type: 3}
